v 20110115 2
C 40000 40000 0 0 0 title-B.sym
T 54600 44600 5 10 0 0 0 0 1
device=74HCT01
T 54600 44400 5 10 0 0 0 0 1
footprint=DIP14
T 54600 44200 5 10 0 0 0 0 1
slot=1
T 54600 44000 5 10 0 0 0 0 1
numslots=4
T 54600 43800 5 10 0 0 0 0 1
slotdef=1:1,2,3
T 54600 43600 5 10 0 0 0 0 1
slotdef=2:4,5,6
T 54600 43400 5 10 0 0 0 0 1
slotdef=3:10,8,9
T 54600 43200 5 10 0 0 0 0 1
slotdef=4:13,11,12
T 54600 43000 5 10 0 0 0 0 1
net=GND:7
T 54600 42800 5 10 0 0 0 0 1
net=Vcc:14
T 54600 44800 5 10 0 0 0 0 1
description=4 NAND gates with 2 inputs and open collector output
T 52700 44600 5 10 0 0 0 0 1
device=74HCT01
T 52700 44400 5 10 0 0 0 0 1
footprint=DIP14
T 52700 44200 5 10 0 0 0 0 1
slot=1
T 52700 44000 5 10 0 0 0 0 1
numslots=4
T 52700 43800 5 10 0 0 0 0 1
slotdef=1:1,2,3
T 52700 43600 5 10 0 0 0 0 1
slotdef=2:4,5,6
T 52700 43400 5 10 0 0 0 0 1
slotdef=3:10,8,9
T 52700 43200 5 10 0 0 0 0 1
slotdef=4:13,11,12
T 52700 43000 5 10 0 0 0 0 1
net=GND:7
T 52700 42800 5 10 0 0 0 0 1
net=Vcc:14
T 52700 44800 5 10 0 0 0 0 1
description=4 NAND gates with 2 inputs and open collector output
T 55600 45500 5 10 0 0 0 0 1
device=74HCT01
T 55600 45300 5 10 0 0 0 0 1
footprint=DIP14
T 55600 45100 5 10 0 0 0 0 1
slot=1
T 55600 44900 5 10 0 0 0 0 1
numslots=4
T 55600 44700 5 10 0 0 0 0 1
slotdef=1:1,2,3
T 55600 44500 5 10 0 0 0 0 1
slotdef=2:4,5,6
T 55600 44300 5 10 0 0 0 0 1
slotdef=3:10,8,9
T 55600 44100 5 10 0 0 0 0 1
slotdef=4:13,11,12
T 55600 43900 5 10 0 0 0 0 1
net=GND:7
T 55600 43700 5 10 0 0 0 0 1
net=Vcc:14
T 55600 45700 5 10 0 0 0 0 1
description=4 NAND gates with 2 inputs and open collector output
T 56300 46900 5 10 0 0 0 0 1
device=74HCT01
T 56300 46700 5 10 0 0 0 0 1
footprint=DIP14
T 56300 46500 5 10 0 0 0 0 1
slot=1
T 56300 46300 5 10 0 0 0 0 1
numslots=4
T 56300 46100 5 10 0 0 0 0 1
slotdef=1:1,2,3
T 56300 45900 5 10 0 0 0 0 1
slotdef=2:4,5,6
T 56300 45700 5 10 0 0 0 0 1
slotdef=3:10,8,9
T 56300 45500 5 10 0 0 0 0 1
slotdef=4:13,11,12
T 56300 45300 5 10 0 0 0 0 1
net=GND:7
T 56300 45100 5 10 0 0 0 0 1
net=Vcc:14
T 56300 47100 5 10 0 0 0 0 1
description=4 NAND gates with 2 inputs and open collector output
T 43300 47650 5 10 0 0 0 0 1
device=4066
T 43300 47850 5 10 0 0 0 0 1
footprint=DIP14
T 43300 48050 5 10 0 0 0 0 1
description=4 bilateral switches
T 43300 48650 5 10 0 0 0 0 1
numslots=0
T 43300 48250 5 10 0 0 0 0 1
net=VDD:14
T 43300 48450 5 10 0 0 0 0 1
net=VSS:7
T 43300 48850 5 10 0 0 0 0 1
documentation=http://www.semiconductors.philips.com/acrobat/datasheets/HEF4066B_CNV_3.pdf
T 41900 44150 5 10 0 0 0 0 1
device=4066
T 41900 44350 5 10 0 0 0 0 1
footprint=DIP14
T 41900 44550 5 10 0 0 0 0 1
description=4 bilateral switches
T 41900 45150 5 10 0 0 0 0 1
numslots=4
T 41900 44750 5 10 0 0 0 0 1
net=VDD:14
T 41900 44950 5 10 0 0 0 0 1
net=VSS:7
T 41900 46350 5 10 0 0 0 0 1
documentation=http://www.semiconductors.philips.com/acrobat/datasheets/HEF4066B_CNV_3.pdf
T 41900 45350 5 10 0 0 0 0 1
slot=1
T 41900 45550 5 10 0 0 0 0 1
slotdef=1:1,2,13
T 41900 45750 5 10 0 0 0 0 1
slotdef=2:3,4,5
T 41900 45950 5 10 0 0 0 0 1
slotdef=3:8,9,6
T 41900 46150 5 10 0 0 0 0 1
slotdef=4:11,10,12
T 42800 42550 5 10 0 0 0 0 1
device=4066
T 42800 42750 5 10 0 0 0 0 1
footprint=DIP14
T 42800 42950 5 10 0 0 0 0 1
description=4 bilateral switches
T 42800 43550 5 10 0 0 0 0 1
numslots=4
T 42800 43150 5 10 0 0 0 0 1
net=VDD:14
T 42800 43350 5 10 0 0 0 0 1
net=VSS:7
T 42800 44750 5 10 0 0 0 0 1
documentation=http://www.semiconductors.philips.com/acrobat/datasheets/HEF4066B_CNV_3.pdf
T 42800 43750 5 10 0 0 0 0 1
slot=1
T 42800 43950 5 10 0 0 0 0 1
slotdef=1:1,2,13
T 42800 44150 5 10 0 0 0 0 1
slotdef=2:3,4,5
T 42800 44350 5 10 0 0 0 0 1
slotdef=3:8,9,6
T 42800 44550 5 10 0 0 0 0 1
slotdef=4:11,10,12
T 44900 43650 5 10 0 0 0 0 1
device=4066
T 44900 43850 5 10 0 0 0 0 1
footprint=DIP14
T 44900 44050 5 10 0 0 0 0 1
description=4 bilateral switches
T 44900 44650 5 10 0 0 0 0 1
numslots=4
T 44900 44250 5 10 0 0 0 0 1
net=VDD:14
T 44900 44450 5 10 0 0 0 0 1
net=VSS:7
T 44900 45850 5 10 0 0 0 0 1
documentation=http://www.semiconductors.philips.com/acrobat/datasheets/HEF4066B_CNV_3.pdf
T 44900 44850 5 10 0 0 0 0 1
slot=1
T 44900 45050 5 10 0 0 0 0 1
slotdef=1:1,2,13
T 44900 45250 5 10 0 0 0 0 1
slotdef=2:3,4,5
T 44900 45450 5 10 0 0 0 0 1
slotdef=3:8,9,6
T 44900 45650 5 10 0 0 0 0 1
slotdef=4:11,10,12
T 45700 42350 5 10 0 0 0 0 1
device=4066
T 45700 42550 5 10 0 0 0 0 1
footprint=DIP14
T 45700 42750 5 10 0 0 0 0 1
description=4 bilateral switches
T 45700 43350 5 10 0 0 0 0 1
numslots=4
T 45700 42950 5 10 0 0 0 0 1
net=VDD:14
T 45700 43150 5 10 0 0 0 0 1
net=VSS:7
T 45700 44550 5 10 0 0 0 0 1
documentation=http://www.semiconductors.philips.com/acrobat/datasheets/HEF4066B_CNV_3.pdf
T 45700 43550 5 10 0 0 0 0 1
slot=1
T 45700 43750 5 10 0 0 0 0 1
slotdef=1:1,2,13
T 45700 43950 5 10 0 0 0 0 1
slotdef=2:3,4,5
T 45700 44150 5 10 0 0 0 0 1
slotdef=3:8,9,6
T 45700 44350 5 10 0 0 0 0 1
slotdef=4:11,10,12
C 42800 44200 1 0 0 4066-2.sym
{
T 43100 45250 5 10 0 0 0 0 1
device=4066
T 44100 45100 5 10 1 1 0 6 1
refdes=U1
T 43100 45450 5 10 0 0 0 0 1
footprint=DIP14
T 42800 44200 5 10 0 0 0 0 1
slot=1
}
C 51600 44200 1 0 1 4066-2.sym
{
T 51300 45250 5 10 0 0 0 6 1
device=4066
T 50300 45100 5 10 1 1 0 0 1
refdes=U1
T 51300 45450 5 10 0 0 0 6 1
footprint=DIP14
T 51600 44200 5 10 0 0 0 6 1
slot=4
}
C 50000 42900 1 0 1 4066-2.sym
{
T 49700 43950 5 10 0 0 0 6 1
device=4066
T 48700 43800 5 10 1 1 0 0 1
refdes=U1
T 49700 44150 5 10 0 0 0 6 1
footprint=DIP14
T 50000 42900 5 10 0 0 0 6 1
slot=3
}
C 44400 42900 1 0 0 4066-2.sym
{
T 44700 43950 5 10 0 0 0 0 1
device=4066
T 45700 43800 5 10 1 1 0 6 1
refdes=U1
T 44700 44150 5 10 0 0 0 0 1
footprint=DIP14
T 44400 42900 5 10 0 0 0 0 1
slot=2
}
P 55200 48100 55700 48100 1 0 0
{
T 55200 48100 5 10 0 0 0 0 1
pintype=pwr
T 55755 48095 5 10 1 1 0 0 1
pinlabel=Vcc
T 55505 48245 5 10 1 1 0 6 1
refdes=U1
T 55200 48100 5 10 0 0 0 0 1
pinseq=14
T 56100 48200 5 10 0 2 0 0 1
pinnumber=Vcc
}
P 55200 47800 55700 47800 1 0 0
{
T 55200 47800 5 10 0 0 0 0 1
pintype=pwr
T 55755 47795 5 10 1 1 0 0 1
pinlabel=GND
T 55505 47945 5 10 1 1 0 6 1
refdes=U1
T 55200 47800 5 10 0 0 0 0 1
pinseq=7
T 56100 47900 5 10 0 2 0 0 1
pinnumber=GND
}
C 54500 49300 1 0 0 gnd-1.sym
C 52400 44400 1 0 0 gnd-1.sym
C 54400 50400 1 0 0 5V-plus-1.sym
C 46000 44600 1 0 0 capacitor-1.sym
{
T 46200 45300 5 10 0 0 0 0 1
device=CAPACITOR
T 46200 45100 5 10 1 1 0 0 1
refdes=C4
T 46200 45500 5 10 0 0 0 0 1
symversion=0.1
T 46400 44400 5 10 1 1 0 0 1
value=10n
}
C 47500 44600 1 0 0 capacitor-1.sym
{
T 47700 45300 5 10 0 0 0 0 1
device=CAPACITOR
T 47700 45100 5 10 1 1 0 0 1
refdes=C5
T 47700 45500 5 10 0 0 0 0 1
symversion=0.1
T 47700 44400 5 10 1 1 0 0 1
value=10n
}
C 52700 44300 1 180 0 capacitor-1.sym
{
T 52500 43600 5 10 0 0 180 0 1
device=CAPACITOR
T 52500 43800 5 10 1 1 180 0 1
refdes=C7
T 52500 43400 5 10 0 0 180 0 1
symversion=0.1
T 52100 43500 5 10 1 1 0 0 1
value=100n
}
C 42500 44300 1 180 0 capacitor-1.sym
{
T 42300 43600 5 10 0 0 180 0 1
device=CAPACITOR
T 42300 43800 5 10 1 1 180 0 1
refdes=C3
T 42300 43400 5 10 0 0 180 0 1
symversion=0.1
T 41900 44400 5 10 1 1 0 0 1
value=100n
}
C 54900 48400 1 90 1 capacitor-4.sym
{
T 53800 48200 5 10 0 0 270 2 1
device=POLARIZED_CAPACITOR
T 54300 48100 5 10 1 1 90 2 1
refdes=C6
T 54200 48200 5 10 0 0 270 2 1
symversion=0.1
T 54200 48100 5 10 1 1 90 0 1
value=10u
}
P 54600 50100 55100 50100 1 0 0
{
T 54600 50100 5 10 0 0 0 0 1
pintype=pwr
T 55155 50095 5 10 1 1 0 0 1
pinlabel=Vcc+
T 54905 50245 5 10 1 1 0 6 1
refdes=U3
T 54600 50100 5 10 0 0 0 0 1
pinseq=7
T 55500 50200 5 10 0 2 0 0 1
pinnumber=Vcc+
}
P 54600 49800 55100 49800 1 0 0
{
T 54600 49800 5 10 0 0 0 0 1
pintype=pwr
T 55155 49795 5 10 1 1 0 0 1
pinlabel=Vcc-
T 54905 49945 5 10 1 1 0 6 1
refdes=U3
T 54600 49800 5 10 0 0 0 0 1
pinseq=4
T 55500 49900 5 10 0 2 0 0 1
pinnumber=Vcc-
}
N 54600 49600 54600 49800 4
N 54600 50100 54600 50400 4
C 45300 44800 1 90 0 resistor-2.sym
{
T 44950 45200 5 10 0 0 90 0 1
device=RESISTOR
T 45000 45200 5 10 1 1 90 0 1
refdes=R5
T 45300 45100 5 10 1 1 90 0 1
value=1k
}
C 42900 43100 1 90 0 resistor-2.sym
{
T 42550 43500 5 10 0 0 90 0 1
device=RESISTOR
T 42600 43300 5 10 1 1 90 0 1
refdes=R2
T 42900 43400 5 10 1 1 90 0 1
value=1k
}
C 51700 43100 1 90 0 resistor-2.sym
{
T 51350 43500 5 10 0 0 90 0 1
device=RESISTOR
T 51400 43300 5 10 1 1 90 0 1
refdes=R9
T 51700 43400 5 10 1 1 90 0 1
value=1k
}
C 46100 43900 1 90 0 resistor-2.sym
{
T 45750 44300 5 10 0 0 90 0 1
device=RESISTOR
T 45800 44100 5 10 1 1 90 0 1
refdes=R6
T 46100 44200 5 10 1 1 90 0 1
value=10k
}
C 48500 43900 1 90 0 resistor-2.sym
{
T 48150 44300 5 10 0 0 90 0 1
device=RESISTOR
T 48200 44100 5 10 1 1 90 0 1
refdes=R8
T 48500 44200 5 10 1 1 90 0 1
value=10k
}
C 49300 44800 1 90 0 resistor-2.sym
{
T 48950 45200 5 10 0 0 90 0 1
device=RESISTOR
T 49000 45000 5 10 1 1 90 0 1
refdes=R7
T 49300 45100 5 10 1 1 90 0 1
value=1k
}
C 55200 45800 1 180 0 pwrjack-1.sym
{
T 55100 45300 5 10 0 0 180 0 1
device=PWRJACK
T 55200 45300 5 10 1 1 180 0 1
refdes=CONN1
}
C 54600 47000 1 0 0 gnd-1.sym
C 54500 48600 1 0 0 5V-plus-1.sym
N 42800 44000 42800 44400 4
C 42700 42700 1 0 0 gnd-1.sym
N 42800 43000 42800 43100 4
N 42800 43100 44400 43100 4
T 40200 40300 9 10 1 0 0 0 2
CheapChop circuit from 
http://lea.hamradio.si/~s57uuu/scdsp/CheapChop/cheapchop.htm
T 50000 40700 9 10 1 0 0 0 1
Voltage meter for mic input
C 51500 42700 1 0 0 gnd-1.sym
N 51600 43100 51600 43000 4
N 44400 44800 46000 44800 4
N 46000 43900 46000 43500 4
N 44400 43500 44400 44800 4
N 48400 43500 48400 43900 4
N 48400 44800 50000 44800 4
N 50000 43500 50000 44800 4
N 51600 43100 50000 43100 4
N 46900 44800 48200 43500 4
N 47000 44300 47500 44800 4
N 47000 44300 46200 43500 4
N 46200 43500 46000 43500 4
N 48200 43500 48400 43500 4
N 42800 44800 42800 46000 4
{
T 42800 45300 5 10 1 1 90 0 1
netname=DCin1
T 42800 44800 5 10 0 0 0 0 1
refdes=DCin1
}
N 51600 44800 52500 44800 4
{
T 51800 44800 5 10 1 1 0 0 1
netname=DCin2
}
C 47000 46000 1 0 0 5V-plus-1.sym
N 45200 45700 45200 46000 4
N 45200 46000 49200 46000 4
N 49200 46000 49200 45700 4
N 54700 47500 55200 47500 4
N 54700 48400 55200 48400 4
N 54700 48600 54700 48400 4
N 54700 47300 54700 47500 4
N 55200 48400 55200 48100 4
N 55200 47500 55200 47800 4
N 51600 44400 51600 44000 4
N 52500 44800 52500 44700 4
N 51600 44100 51800 44100 4
N 42500 44100 42800 44100 4
N 52700 44100 53500 44100 4
{
T 52900 44100 5 10 1 1 0 0 1
netname=micR
T 52900 44100 5 10 0 0 0 0 1
refdes=micR
}
N 41600 44100 41000 44100 4
{
T 41000 44100 5 10 1 1 0 0 1
netname=micL
T 41600 44100 5 10 0 0 0 0 1
refdes=micL
}
N 54300 45500 53700 45500 4
{
T 53800 45500 5 10 1 1 0 0 1
netname=micL
T 54300 45500 5 10 0 0 0 0 1
refdes=micL
}
N 54300 45700 53700 45700 4
{
T 53800 45700 5 10 1 1 0 0 1
netname=micR
T 54300 45700 5 10 0 0 0 0 1
refdes=micR
}
C 40600 49300 1 270 0 battery-2.sym
{
T 41300 49000 5 10 0 0 270 0 1
device=BATTERY
T 41100 49000 5 10 1 1 270 0 1
refdes=B1
T 41900 49000 5 10 0 0 270 0 1
symversion=0.1
}
C 43000 49100 1 0 0 lm7805-1.sym
{
T 44600 50400 5 10 0 0 0 0 1
device=7805
T 44400 50100 5 10 1 1 0 6 1
refdes=U2
}
C 40700 47600 1 0 0 gnd-1.sym
C 43700 48300 1 0 0 gnd-1.sym
C 40600 50200 1 0 0 12V-plus-1.sym
C 44900 50200 1 0 0 5V-plus-1.sym
N 40800 47900 40800 48400 4
N 40800 50200 40800 49300 4
N 43000 49700 40800 49700 4
N 43800 48600 43800 49100 4
C 45300 48800 1 90 0 capacitor-1.sym
{
T 44600 49000 5 10 0 0 90 0 1
device=CAPACITOR
T 44800 49000 5 10 1 1 90 0 1
refdes=C2
T 44400 49000 5 10 0 0 90 0 1
symversion=0.1
T 45500 48900 5 10 1 1 90 0 1
value=100n
}
C 42800 48800 1 90 0 capacitor-1.sym
{
T 42100 49000 5 10 0 0 90 0 1
device=CAPACITOR
T 42300 49000 5 10 1 1 90 0 1
refdes=C1
T 41900 49000 5 10 0 0 90 0 1
symversion=0.1
T 43000 49000 5 10 1 1 90 0 1
value=100n
}
N 42600 48800 43800 48800 4
N 43800 48800 45100 48800 4
N 45100 50200 45100 49700 4
N 44600 49700 45100 49700 4
C 48100 49100 1 90 0 zener-1.sym
{
T 47500 49500 5 10 0 0 90 0 1
device=ZENER_DIODE
T 47600 49400 5 10 1 1 90 0 1
refdes=Z1
T 48300 49300 5 10 1 1 90 0 1
value=10V
T 47600 49200 5 10 0 1 90 0 1
model=BZX55C
}
C 48000 47800 1 90 0 resistor-2.sym
{
T 47650 48200 5 10 0 0 90 0 1
device=RESISTOR
T 47700 48100 5 10 1 1 90 0 1
refdes=R1
T 48000 48100 5 10 1 1 90 0 1
value=40
}
C 47800 47500 1 0 0 gnd-1.sym
C 48600 47500 1 0 0 gnd-1.sym
C 47700 50200 1 0 0 12V-plus-1.sym
N 47900 50000 47900 50200 4
N 47900 48700 47900 49100 4
C 49100 48700 1 0 0 OpAmp-DIP8-Single-1.sym
{
T 49650 49350 5 10 1 1 0 0 1
refdes=U3
T 49300 51000 5 10 0 0 0 0 1
device=OpAmp-DIP8
T 49300 49600 5 10 0 0 0 0 1
footprint=DIP-8-300
T 49300 48500 5 10 1 1 0 0 1
model=LT1006
}
N 49100 48900 47900 48900 4
C 48800 47800 1 90 0 resistor-2.sym
{
T 48450 48200 5 10 0 0 90 0 1
device=RESISTOR
T 48500 48000 5 10 1 1 90 0 1
refdes=R4
T 48800 48000 5 10 1 1 90 0 1
value=100k
}
C 49100 49900 1 0 0 resistor-2.sym
{
T 49500 50250 5 10 0 0 0 0 1
device=RESISTOR
T 49300 50200 5 10 1 1 0 0 1
refdes=R3
T 49300 49900 5 10 1 1 0 0 1
value=150k
}
N 48700 48700 48700 50000 4
N 48700 49300 49100 49300 4
N 49100 50000 48700 50000 4
N 50400 49100 50400 50000 4
N 50000 50000 50400 50000 4
T 49300 48300 9 10 1 0 0 0 1
G=1.5
N 50100 49100 51000 49100 4
{
T 50500 49100 5 10 1 1 0 0 1
netname=DCin1
T 49100 49100 5 10 0 0 0 0 1
refdes=DCin2
}
T 56100 41600 9 10 1 0 0 0 17
C1:100n
C2:100n
C3:100n
C4:10n
C5:10n
C6:10u
C7:100n
R1:40
R2:1k
R3:150k
R4:100k
R5:1k
R6:10k
R7:1k
R8:10k
R9:1k
Z1:10V
