v 20110115 2
C 40000 40000 0 0 0 title-B.sym
C 41000 49400 1 270 0 battery-2.sym
{
T 41700 49100 5 10 0 0 270 0 1
device=BATTERY
T 41500 49100 5 10 1 1 270 0 1
refdes=B1
T 42300 49100 5 10 0 0 270 0 1
symversion=0.1
}
C 43400 49200 1 0 0 lm7805-1.sym
{
T 45000 50500 5 10 0 0 0 0 1
device=7805
T 44800 50200 5 10 1 1 0 6 1
refdes=U1
}
C 43500 45500 1 90 0 zener-1.sym
{
T 42900 45900 5 10 0 0 90 0 1
device=ZENER_DIODE
T 43000 45800 5 10 1 1 90 0 1
refdes=Z1
T 43700 45700 5 10 1 1 90 0 1
value=10V
T 43000 45600 5 10 0 1 90 0 1
model=BZX55C
}
C 43400 44200 1 90 0 resistor-2.sym
{
T 43050 44600 5 10 0 0 90 0 1
device=RESISTOR
T 43100 44500 5 10 1 1 90 0 1
refdes=R1
T 43400 44500 5 10 1 1 90 0 1
value=40
}
T 54600 44600 5 10 0 0 0 0 1
device=74HCT01
T 54600 44400 5 10 0 0 0 0 1
footprint=DIP14
T 54600 44200 5 10 0 0 0 0 1
slot=1
T 54600 44000 5 10 0 0 0 0 1
numslots=4
T 54600 43800 5 10 0 0 0 0 1
slotdef=1:1,2,3
T 54600 43600 5 10 0 0 0 0 1
slotdef=2:4,5,6
T 54600 43400 5 10 0 0 0 0 1
slotdef=3:10,8,9
T 54600 43200 5 10 0 0 0 0 1
slotdef=4:13,11,12
T 54600 43000 5 10 0 0 0 0 1
net=GND:7
T 54600 42800 5 10 0 0 0 0 1
net=Vcc:14
T 54600 44800 5 10 0 0 0 0 1
description=4 NAND gates with 2 inputs and open collector output
T 52700 44600 5 10 0 0 0 0 1
device=74HCT01
T 52700 44400 5 10 0 0 0 0 1
footprint=DIP14
T 52700 44200 5 10 0 0 0 0 1
slot=1
T 52700 44000 5 10 0 0 0 0 1
numslots=4
T 52700 43800 5 10 0 0 0 0 1
slotdef=1:1,2,3
T 52700 43600 5 10 0 0 0 0 1
slotdef=2:4,5,6
T 52700 43400 5 10 0 0 0 0 1
slotdef=3:10,8,9
T 52700 43200 5 10 0 0 0 0 1
slotdef=4:13,11,12
T 52700 43000 5 10 0 0 0 0 1
net=GND:7
T 52700 42800 5 10 0 0 0 0 1
net=Vcc:14
T 52700 44800 5 10 0 0 0 0 1
description=4 NAND gates with 2 inputs and open collector output
T 55600 45500 5 10 0 0 0 0 1
device=74HCT01
T 55600 45300 5 10 0 0 0 0 1
footprint=DIP14
T 55600 45100 5 10 0 0 0 0 1
slot=1
T 55600 44900 5 10 0 0 0 0 1
numslots=4
T 55600 44700 5 10 0 0 0 0 1
slotdef=1:1,2,3
T 55600 44500 5 10 0 0 0 0 1
slotdef=2:4,5,6
T 55600 44300 5 10 0 0 0 0 1
slotdef=3:10,8,9
T 55600 44100 5 10 0 0 0 0 1
slotdef=4:13,11,12
T 55600 43900 5 10 0 0 0 0 1
net=GND:7
T 55600 43700 5 10 0 0 0 0 1
net=Vcc:14
T 55600 45700 5 10 0 0 0 0 1
description=4 NAND gates with 2 inputs and open collector output
T 56300 46900 5 10 0 0 0 0 1
device=74HCT01
T 56300 46700 5 10 0 0 0 0 1
footprint=DIP14
T 56300 46500 5 10 0 0 0 0 1
slot=1
T 56300 46300 5 10 0 0 0 0 1
numslots=4
T 56300 46100 5 10 0 0 0 0 1
slotdef=1:1,2,3
T 56300 45900 5 10 0 0 0 0 1
slotdef=2:4,5,6
T 56300 45700 5 10 0 0 0 0 1
slotdef=3:10,8,9
T 56300 45500 5 10 0 0 0 0 1
slotdef=4:13,11,12
T 56300 45300 5 10 0 0 0 0 1
net=GND:7
T 56300 45100 5 10 0 0 0 0 1
net=Vcc:14
T 56300 47100 5 10 0 0 0 0 1
description=4 NAND gates with 2 inputs and open collector output
T 43300 47650 5 10 0 0 0 0 1
device=4066
T 43300 47850 5 10 0 0 0 0 1
footprint=DIP14
T 43300 48050 5 10 0 0 0 0 1
description=4 bilateral switches
T 43300 48650 5 10 0 0 0 0 1
numslots=0
T 43300 48250 5 10 0 0 0 0 1
net=VDD:14
T 43300 48450 5 10 0 0 0 0 1
net=VSS:7
T 43300 48850 5 10 0 0 0 0 1
documentation=http://www.semiconductors.philips.com/acrobat/datasheets/HEF4066B_CNV_3.pdf
T 41900 44150 5 10 0 0 0 0 1
device=4066
T 41900 44350 5 10 0 0 0 0 1
footprint=DIP14
T 41900 44550 5 10 0 0 0 0 1
description=4 bilateral switches
T 41900 45150 5 10 0 0 0 0 1
numslots=4
T 41900 44750 5 10 0 0 0 0 1
net=VDD:14
T 41900 44950 5 10 0 0 0 0 1
net=VSS:7
T 41900 46350 5 10 0 0 0 0 1
documentation=http://www.semiconductors.philips.com/acrobat/datasheets/HEF4066B_CNV_3.pdf
T 41900 45350 5 10 0 0 0 0 1
slot=1
T 41900 45550 5 10 0 0 0 0 1
slotdef=1:1,2,13
T 41900 45750 5 10 0 0 0 0 1
slotdef=2:3,4,5
T 41900 45950 5 10 0 0 0 0 1
slotdef=3:8,9,6
T 41900 46150 5 10 0 0 0 0 1
slotdef=4:11,10,12
T 42800 42550 5 10 0 0 0 0 1
device=4066
T 42800 42750 5 10 0 0 0 0 1
footprint=DIP14
T 42800 42950 5 10 0 0 0 0 1
description=4 bilateral switches
T 42800 43550 5 10 0 0 0 0 1
numslots=4
T 42800 43150 5 10 0 0 0 0 1
net=VDD:14
T 42800 43350 5 10 0 0 0 0 1
net=VSS:7
T 42800 44750 5 10 0 0 0 0 1
documentation=http://www.semiconductors.philips.com/acrobat/datasheets/HEF4066B_CNV_3.pdf
T 42800 43750 5 10 0 0 0 0 1
slot=1
T 42800 43950 5 10 0 0 0 0 1
slotdef=1:1,2,13
T 42800 44150 5 10 0 0 0 0 1
slotdef=2:3,4,5
T 42800 44350 5 10 0 0 0 0 1
slotdef=3:8,9,6
T 42800 44550 5 10 0 0 0 0 1
slotdef=4:11,10,12
T 44900 43650 5 10 0 0 0 0 1
device=4066
T 44900 43850 5 10 0 0 0 0 1
footprint=DIP14
T 44900 44050 5 10 0 0 0 0 1
description=4 bilateral switches
T 44900 44650 5 10 0 0 0 0 1
numslots=4
T 44900 44250 5 10 0 0 0 0 1
net=VDD:14
T 44900 44450 5 10 0 0 0 0 1
net=VSS:7
T 44900 45850 5 10 0 0 0 0 1
documentation=http://www.semiconductors.philips.com/acrobat/datasheets/HEF4066B_CNV_3.pdf
T 44900 44850 5 10 0 0 0 0 1
slot=1
T 44900 45050 5 10 0 0 0 0 1
slotdef=1:1,2,13
T 44900 45250 5 10 0 0 0 0 1
slotdef=2:3,4,5
T 44900 45450 5 10 0 0 0 0 1
slotdef=3:8,9,6
T 44900 45650 5 10 0 0 0 0 1
slotdef=4:11,10,12
T 45700 42350 5 10 0 0 0 0 1
device=4066
T 45700 42550 5 10 0 0 0 0 1
footprint=DIP14
T 45700 42750 5 10 0 0 0 0 1
description=4 bilateral switches
T 45700 43350 5 10 0 0 0 0 1
numslots=4
T 45700 42950 5 10 0 0 0 0 1
net=VDD:14
T 45700 43150 5 10 0 0 0 0 1
net=VSS:7
T 45700 44550 5 10 0 0 0 0 1
documentation=http://www.semiconductors.philips.com/acrobat/datasheets/HEF4066B_CNV_3.pdf
T 45700 43550 5 10 0 0 0 0 1
slot=1
T 45700 43750 5 10 0 0 0 0 1
slotdef=1:1,2,13
T 45700 43950 5 10 0 0 0 0 1
slotdef=2:3,4,5
T 45700 44150 5 10 0 0 0 0 1
slotdef=3:8,9,6
T 45700 44350 5 10 0 0 0 0 1
slotdef=4:11,10,12
C 41100 47700 1 0 0 gnd-1.sym
C 43200 43900 1 0 0 gnd-1.sym
C 44000 43900 1 0 0 gnd-1.sym
C 44100 48400 1 0 0 gnd-1.sym
C 43100 46600 1 0 0 12V-plus-1.sym
C 41000 50300 1 0 0 12V-plus-1.sym
C 45300 50300 1 0 0 5V-plus-1.sym
N 41200 48000 41200 48500 4
N 41200 50300 41200 49400 4
N 43400 49800 41200 49800 4
N 44200 48700 44200 49200 4
C 45700 48900 1 90 0 capacitor-1.sym
{
T 45000 49100 5 10 0 0 90 0 1
device=CAPACITOR
T 45200 49100 5 10 1 1 90 0 1
refdes=C2
T 44800 49100 5 10 0 0 90 0 1
symversion=0.1
T 45900 49000 5 10 1 1 90 0 1
value=100n
}
C 43200 48900 1 90 0 capacitor-1.sym
{
T 42500 49100 5 10 0 0 90 0 1
device=CAPACITOR
T 42700 49100 5 10 1 1 90 0 1
refdes=C1
T 42300 49100 5 10 0 0 90 0 1
symversion=0.1
T 43400 49100 5 10 1 1 90 0 1
value=100n
}
N 43000 48900 44200 48900 4
N 44200 48900 45500 48900 4
N 45500 50300 45500 49800 4
N 45000 49800 45500 49800 4
N 43300 46400 43300 46600 4
N 43300 45100 43300 45500 4
C 44500 45100 1 0 0 OpAmp-DIP8-Single-1.sym
{
T 45050 45750 5 10 1 1 0 0 1
refdes=U2
T 44700 47400 5 10 0 0 0 0 1
device=OpAmp-DIP8
T 44700 46000 5 10 0 0 0 0 1
footprint=DIP-8-300
T 44700 44900 5 10 1 1 0 0 1
model=LT1006
}
P 47900 49900 48400 49900 1 0 0
{
T 47900 49900 5 10 0 0 0 0 1
pintype=pwr
T 48455 49895 5 10 1 1 0 0 1
pinlabel=Vcc+
T 48205 49945 5 10 1 1 0 6 1
refdes=U2
T 47900 49900 5 10 0 0 0 0 1
pinseq=7
T 48800 50000 5 10 0 2 0 0 1
pinnumber=Vcc+
}
P 47900 49600 48400 49600 1 0 0
{
T 47900 49600 5 10 0 0 0 0 1
pintype=pwr
T 48455 49595 5 10 1 1 0 0 1
pinlabel=Vcc-
T 48205 49645 5 10 1 1 0 6 1
refdes=U2
T 47900 49600 5 10 0 0 0 0 1
pinseq=4
T 48800 49700 5 10 0 2 0 0 1
pinnumber=Vcc-
}
N 44500 45300 43300 45300 4
C 48900 45600 1 180 0 resistor-2.sym
{
T 48500 45250 5 10 0 0 180 0 1
device=RESISTOR
T 48400 45300 5 10 1 1 180 0 1
refdes=R2
T 48300 45400 5 10 1 1 0 0 1
value=100k
}
C 48600 42300 1 90 0 resistor-2.sym
{
T 48250 42700 5 10 0 0 90 0 1
device=RESISTOR
T 48300 42500 5 10 1 1 90 0 1
refdes=R7
T 48600 42600 5 10 1 1 90 0 1
value=47
}
C 48600 43200 1 90 0 resistor-2.sym
{
T 48250 43600 5 10 0 0 90 0 1
device=RESISTOR
T 48800 43500 5 10 1 1 90 0 1
refdes=R5
T 48600 43400 5 10 1 1 90 0 1
value=100k
}
C 44200 44200 1 90 0 resistor-2.sym
{
T 43850 44600 5 10 0 0 90 0 1
device=RESISTOR
T 43900 44400 5 10 1 1 90 0 1
refdes=R4
T 44200 44400 5 10 1 1 90 0 1
value=100k
}
C 44500 46300 1 0 0 resistor-2.sym
{
T 44900 46650 5 10 0 0 0 0 1
device=RESISTOR
T 44700 46600 5 10 1 1 0 0 1
refdes=R3
T 44700 46300 5 10 1 1 0 0 1
value=150k
}
C 52100 43200 1 90 0 resistor-2.sym
{
T 51750 43600 5 10 0 0 90 0 1
device=RESISTOR
T 51800 43400 5 10 1 1 90 0 1
refdes=R8
T 52100 43400 5 10 1 1 90 0 1
value=12k
}
C 51700 46600 1 180 0 resistor-2.sym
{
T 51300 46250 5 10 0 0 180 0 1
device=RESISTOR
T 51500 46300 5 10 1 1 180 0 1
refdes=R6
T 51100 46400 5 10 1 1 0 0 1
value=6.8k
}
N 44100 45100 44100 46400 4
N 44100 45700 44500 45700 4
N 44500 46400 44100 46400 4
N 45800 45500 45800 46400 4
N 45400 46400 45800 46400 4
C 55900 44900 1 180 0 pwrjack-1.sym
{
T 55800 44400 5 10 0 0 180 0 1
device=PWRJACK
T 55900 44400 5 10 1 1 180 0 1
refdes=CONN1
}
C 47600 50300 1 0 0 5V-plus-1.sym
T 50000 40700 9 10 1 0 0 0 1
Voltage meter for mic input
C 47700 49000 1 0 0 gnd-1.sym
N 45500 45500 48000 45500 4
{
T 46300 45500 5 10 1 1 0 0 1
netname=DCin1
T 44500 45500 5 10 0 0 0 0 1
refdes=DCin2
}
N 51600 44800 55000 44800 4
{
T 52900 44800 5 10 0 0 0 0 1
refdes=micR
T 54500 44800 5 10 1 1 0 0 1
netname=micR
T 55000 44800 5 10 0 0 0 0 1
refdes=micR
}
N 55000 44600 54400 44600 4
{
T 54500 44600 5 10 1 1 0 0 1
netname=micL
T 55000 44600 5 10 0 0 0 0 1
refdes=micL
}
N 47900 49900 47800 49900 4
N 47800 49900 47800 50300 4
N 47900 49600 47800 49600 4
N 47800 49600 47800 49300 4
C 48400 42000 1 0 0 gnd-1.sym
C 50200 46500 1 0 0 5V-plus-1.sym
N 50400 46500 50400 46300 4
C 47100 45500 1 270 0 capacitor-4.sym
{
T 48200 45300 5 10 0 0 270 0 1
device=POLARIZED_CAPACITOR
T 47700 45000 5 10 1 1 90 0 1
refdes=C3
T 47800 45300 5 10 0 0 270 0 1
symversion=0.1
T 47000 44900 5 10 1 1 90 0 1
value=0.1u
T 47100 45500 5 10 0 0 0 0 1
comment=or 1u
}
C 47600 44100 1 270 0 capacitor-4.sym
{
T 48700 43900 5 10 0 0 270 0 1
device=POLARIZED_CAPACITOR
T 48200 43600 5 10 1 1 90 0 1
refdes=C4
T 48300 43900 5 10 0 0 270 0 1
symversion=0.1
T 47600 44100 5 10 1 1 0 0 1
value=1u
}
C 52400 45300 1 0 0 capacitor-4.sym
{
T 52600 46400 5 10 0 0 0 0 1
device=POLARIZED_CAPACITOR
T 52600 45800 5 10 1 1 0 0 1
refdes=C5
T 52600 46000 5 10 0 0 0 0 1
symversion=0.1
T 52400 45300 5 10 1 1 0 0 1
value=0.01u
}
C 51900 43200 1 270 0 pot-bourns.sym
{
T 52800 42400 5 10 0 0 270 0 1
device=VARIABLE_RESISTOR
T 52400 42300 5 10 1 1 90 0 1
refdes=R9
T 51800 42700 5 10 1 1 90 0 1
value=5k
}
N 48900 45500 49200 45500 4
C 47200 44300 1 0 0 gnd-1.sym
C 49200 43400 1 0 0 lm331-DIP8.sym
{
T 50700 46000 5 10 1 1 0 0 1
device=LM331
T 50700 46200 5 10 0 1 0 0 1
footprint=DIP8
}
N 50800 46500 50400 46500 4
C 50300 43100 1 0 0 gnd-1.sym
N 52400 45500 51600 45500 4
C 53200 45000 1 0 0 gnd-1.sym
N 53300 45300 53300 45500 4
N 52000 44100 51600 44100 4
C 51900 42000 1 0 0 gnd-1.sym
N 49200 44800 49200 44100 4
N 47800 44100 49200 44100 4
N 48500 43200 47800 43200 4
N 52000 46500 52000 45500 4
N 52000 46500 51700 46500 4
T 44700 44700 9 10 1 0 0 0 1
G=1.5
